simulation/qsim/Lab01.msim.vcd
$comment
	File created using the following command:
		vcd file Lab01.msim.vcd -direction
$end
$date
	Fri Sep 09 11:34:29 2022
$end
$version
	ModelSim Version 10.1d
$end
$timescale
	1ps
$end
$scope module LAB01_vlg_vec_tst $end
$var reg 1 ! A $end
$var reg 1 " B $end
$var reg 1 # C $end
$var reg 1 $ UM $end
$var reg 1 % ZERO $end
$var wire 1 & S1 $end
$var wire 1 ' S2 $end
$var wire 1 ( S3 $end
$var wire 1 ) S4 $end
$var wire 1 * S5 $end
$var wire 1 + S6 $end
$var wire 1 , S7 $end
$var wire 1 - S8 $end
$var wire 1 . S9 $end
$var wire 1 / S10 $end
$var wire 1 0 S11 $end
$var wire 1 1 S12 $end
$var wire 1 2 S13 $end
$var wire 1 3 S14 $end
$var wire 1 4 S15 $end
$var wire 1 5 S16 $end
$var wire 1 6 S17 $end
$var wire 1 7 S18 $end
$var wire 1 8 S19 $end
$var wire 1 9 sampler $end
$scope module i1 $end
$var wire 1 : gnd $end
$var wire 1 ; vcc $end
$var wire 1 < unknown $end
$var tri1 1 = devclrn $end
$var tri1 1 > devpor $end
$var tri1 1 ? devoe $end
$var wire 1 @ S1~output_o $end
$var wire 1 A S2~output_o $end
$var wire 1 B S3~output_o $end
$var wire 1 C S4~output_o $end
$var wire 1 D S5~output_o $end
$var wire 1 E S6~output_o $end
$var wire 1 F S7~output_o $end
$var wire 1 G S8~output_o $end
$var wire 1 H S9~output_o $end
$var wire 1 I S10~output_o $end
$var wire 1 J S11~output_o $end
$var wire 1 K S12~output_o $end
$var wire 1 L S13~output_o $end
$var wire 1 M S14~output_o $end
$var wire 1 N S15~output_o $end
$var wire 1 O S16~output_o $end
$var wire 1 P S17~output_o $end
$var wire 1 Q S18~output_o $end
$var wire 1 R S19~output_o $end
$var wire 1 S A~input_o $end
$var wire 1 T B~input_o $end
$var wire 1 U S1~0_combout $end
$var wire 1 V S2~0_combout $end
$var wire 1 W ZERO~input_o $end
$var wire 1 X S3~0_combout $end
$var wire 1 Y UM~input_o $end
$var wire 1 Z S4~0_combout $end
$var wire 1 [ C~input_o $end
$var wire 1 \ S9~0_combout $end
$var wire 1 ] S11~0_combout $end
$var wire 1 ^ S12~0_combout $end
$var wire 1 _ S14~0_combout $end
$upscope $end
$upscope $end
$enddefinitions $end
#0
$dumpvars
0!
0"
0#
1$
0%
0&
0'
0(
0)
0*
0+
0,
0-
0.
0/
00
01
02
03
04
15
16
17
18
x9
0:
1;
x<
1=
1>
1?
0@
0A
0B
0C
0D
0E
0F
0G
0H
0I
0J
0K
0L
0M
0N
1O
1P
1Q
1R
0S
0T
1U
0V
0W
0X
1Y
0Z
0[
1\
0]
0^
0_
$end
#25000
1!
09
1S
0\
1D
1*
1_
1Z
1X
0U
1G
1H
1N
1M
1C
1B
0R
0Q
1@
1E
1-
1.
14
13
1)
1(
08
07
1&
1+
#50000
1"
0!
1T
19
0S
0D
0*
0_
0Z
0X
0N
0M
0C
0B
04
03
0)
0(
#75000
1!
09
1S
1D
1*
1_
1^
1Z
1X
1V
1N
1M
1L
1K
1C
1B
1F
1A
0O
0P
14
13
12
11
1)
1(
1,
1'
05
06
#100000
1#
0"
0!
1[
0T
19
0S
0D
0*
0_
0^
0V
1U
0Z
0X
0N
0M
0L
0K
0F
0A
1R
1Q
0C
0B
1O
1P
0@
0E
04
03
02
01
0,
0'
18
17
0)
0(
15
16
0&
0+
#125000
1!
09
1S
1D
1*
1_
1^
1Z
1X
0U
1N
1M
1L
1K
1C
1B
0R
0Q
1@
1E
14
13
12
11
1)
1(
08
07
1&
1+
#150000
1"
0!
1T
19
0S
0D
0*
0^
0Z
0X
0L
0K
0C
0B
02
01
0)
0(
#175000
1!
09
1S
1D
1*
1^
1]
1Z
1X
1V
1L
1K
1J
1I
1C
1B
1F
1A
0O
0P
12
11
10
1/
1)
1(
1,
1'
05
06
#200000
0#
0"
0!
0[
0T
19
0S
1\
0D
0*
0_
0^
0]
0V
1U
0Z
0X
0G
0H
0N
0M
0L
0K
0J
0I
0F
0A
1R
1Q
0C
0B
1O
1P
0@
0E
0-
0.
04
03
02
01
00
0/
0,
0'
18
17
0)
0(
15
16
0&
0+
#225000
1!
09
1S
0\
1D
1*
1_
1Z
1X
0U
1G
1H
1N
1M
1C
1B
0R
0Q
1@
1E
1-
1.
14
13
1)
1(
08
07
1&
1+
#250000
1"
0!
1T
19
0S
0D
0*
0_
0Z
0X
0N
0M
0C
0B
04
03
0)
0(
#275000
1!
09
1S
1D
1*
1_
1^
1Z
1X
1V
1N
1M
1L
1K
1C
1B
1F
1A
0O
0P
14
13
12
11
1)
1(
1,
1'
05
06
#300000
1#
0"
0!
1[
0T
19
0S
0D
0*
0_
0^
0V
1U
0Z
0X
0N
0M
0L
0K
0F
0A
1R
1Q
0C
0B
1O
1P
0@
0E
04
03
02
01
0,
0'
18
17
0)
0(
15
16
0&
0+
#325000
1!
09
1S
1D
1*
1_
1^
1Z
1X
0U
1N
1M
1L
1K
1C
1B
0R
0Q
1@
1E
14
13
12
11
1)
1(
08
07
1&
1+
#350000
1"
0!
1T
19
0S
0D
0*
0^
0Z
0X
0L
0K
0C
0B
02
01
0)
0(
#375000
1!
09
1S
1D
1*
1^
1]
1Z
1X
1V
1L
1K
1J
1I
1C
1B
1F
1A
0O
0P
12
11
10
1/
1)
1(
1,
1'
05
06
#400000
0#
0"
0!
0[
0T
19
0S
1\
0D
0*
0_
0^
0]
0V
1U
0Z
0X
0G
0H
0N
0M
0L
0K
0J
0I
0F
0A
1R
1Q
0C
0B
1O
1P
0@
0E
0-
0.
04
03
02
01
00
0/
0,
0'
18
17
0)
0(
15
16
0&
0+
#425000
1!
09
1S
0\
1D
1*
1_
1Z
1X
0U
1G
1H
1N
1M
1C
1B
0R
0Q
1@
1E
1-
1.
14
13
1)
1(
08
07
1&
1+
#450000
1"
0!
1T
19
0S
0D
0*
0_
0Z
0X
0N
0M
0C
0B
04
03
0)
0(
#475000
1!
09
1S
1D
1*
1_
1^
1Z
1X
1V
1N
1M
1L
1K
1C
1B
1F
1A
0O
0P
14
13
12
11
1)
1(
1,
1'
05
06
#500000
1#
0"
0!
1[
0T
19
0S
0D
0*
0_
0^
0V
1U
0Z
0X
0N
0M
0L
0K
0F
0A
1R
1Q
0C
0B
1O
1P
0@
0E
04
03
02
01
0,
0'
18
17
0)
0(
15
16
0&
0+
#525000
1!
09
1S
1D
1*
1_
1^
1Z
1X
0U
1N
1M
1L
1K
1C
1B
0R
0Q
1@
1E
14
13
12
11
1)
1(
08
07
1&
1+
#550000
1"
0!
1T
19
0S
0D
0*
0^
0Z
0X
0L
0K
0C
0B
02
01
0)
0(
#575000
1!
09
1S
1D
1*
1^
1]
1Z
1X
1V
1L
1K
1J
1I
1C
1B
1F
1A
0O
0P
12
11
10
1/
1)
1(
1,
1'
05
06
#600000
0#
0"
0!
0[
0T
19
0S
1\
0D
0*
0_
0^
0]
0V
1U
0Z
0X
0G
0H
0N
0M
0L
0K
0J
0I
0F
0A
1R
1Q
0C
0B
1O
1P
0@
0E
0-
0.
04
03
02
01
00
0/
0,
0'
18
17
0)
0(
15
16
0&
0+
#625000
1!
09
1S
0\
1D
1*
1_
1Z
1X
0U
1G
1H
1N
1M
1C
1B
0R
0Q
1@
1E
1-
1.
14
13
1)
1(
08
07
1&
1+
#650000
1"
0!
1T
19
0S
0D
0*
0_
0Z
0X
0N
0M
0C
0B
04
03
0)
0(
#675000
1!
09
1S
1D
1*
1_
1^
1Z
1X
1V
1N
1M
1L
1K
1C
1B
1F
1A
0O
0P
14
13
12
11
1)
1(
1,
1'
05
06
#700000
1#
0"
0!
1[
0T
19
0S
0D
0*
0_
0^
0V
1U
0Z
0X
0N
0M
0L
0K
0F
0A
1R
1Q
0C
0B
1O
1P
0@
0E
04
03
02
01
0,
0'
18
17
0)
0(
15
16
0&
0+
#725000
1!
09
1S
1D
1*
1_
1^
1Z
1X
0U
1N
1M
1L
1K
1C
1B
0R
0Q
1@
1E
14
13
12
11
1)
1(
08
07
1&
1+
#750000
1"
0!
1T
19
0S
0D
0*
0^
0Z
0X
0L
0K
0C
0B
02
01
0)
0(
#775000
1!
09
1S
1D
1*
1^
1]
1Z
1X
1V
1L
1K
1J
1I
1C
1B
1F
1A
0O
0P
12
11
10
1/
1)
1(
1,
1'
05
06
#800000
0#
0"
0!
0[
0T
19
0S
1\
0D
0*
0_
0^
0]
0V
1U
0Z
0X
0G
0H
0N
0M
0L
0K
0J
0I
0F
0A
1R
1Q
0C
0B
1O
1P
0@
0E
0-
0.
04
03
02
01
00
0/
0,
0'
18
17
0)
0(
15
16
0&
0+
#825000
1!
09
1S
0\
1D
1*
1_
1Z
1X
0U
1G
1H
1N
1M
1C
1B
0R
0Q
1@
1E
1-
1.
14
13
1)
1(
08
07
1&
1+
#850000
1"
0!
1T
19
0S
0D
0*
0_
0Z
0X
0N
0M
0C
0B
04
03
0)
0(
#875000
1!
09
1S
1D
1*
1_
1^
1Z
1X
1V
1N
1M
1L
1K
1C
1B
1F
1A
0O
0P
14
13
12
11
1)
1(
1,
1'
05
06
#900000
1#
0"
0!
1[
0T
19
0S
0D
0*
0_
0^
0V
1U
0Z
0X
0N
0M
0L
0K
0F
0A
1R
1Q
0C
0B
1O
1P
0@
0E
04
03
02
01
0,
0'
18
17
0)
0(
15
16
0&
0+
#925000
1!
09
1S
1D
1*
1_
1^
1Z
1X
0U
1N
1M
1L
1K
1C
1B
0R
0Q
1@
1E
14
13
12
11
1)
1(
08
07
1&
1+
#950000
1"
0!
1T
19
0S
0D
0*
0^
0Z
0X
0L
0K
0C
0B
02
01
0)
0(
#975000
1!
09
1S
1D
1*
1^
1]
1Z
1X
1V
1L
1K
1J
1I
1C
1B
1F
1A
0O
0P
12
11
10
1/
1)
1(
1,
1'
05
06
